{
    "Title" : "1 TB External Drive",
    "Slug": "1-tb-external-drive",
    "Price": [
        {
            "From": 1,
            "To":10,
            "Price": 99.99
        },
        {
            "From": 11,
            "To": 20,
            "Price": 95.99
        }
    ],
    "IsBulkPricing": true,
    "ShortDescription": "",
    "LongDescription": "",
    "FeaturedImage": "",
    "Type": "",
    "Status": "draft",
    "Categories":[],
    "Tags":[]
}